%!PS-Adobe-2.0 EPSF-2.0
%%Title: ldomain_adaptive_alberta.eps
%%Creator: gnuplot 4.4 patchlevel 4
%%CreationDate: Sat Jul  7 00:12:46 2012
%%DocumentFonts: (atend)
%%BoundingBox: 50 50 410 302
%%EndComments
%%BeginProlog
/gnudict 256 dict def
gnudict begin
%
% The following true/false flags may be edited by hand if desired.
% The unit line width and grayscale image gamma correction may also be changed.
%
/Color true def
/Blacktext false def
/Solid false def
/Dashlength 1 def
/Landscape false def
/Level1 false def
/Rounded false def
/ClipToBoundingBox false def
/TransparentPatterns false def
/gnulinewidth 5.000 def
/userlinewidth gnulinewidth def
/Gamma 1.0 def
%
/vshift -46 def
/dl1 {
  10.0 Dashlength mul mul
  Rounded { currentlinewidth 0.75 mul sub dup 0 le { pop 0.01 } if } if
} def
/dl2 {
  10.0 Dashlength mul mul
  Rounded { currentlinewidth 0.75 mul add } if
} def
/hpt_ 31.5 def
/vpt_ 31.5 def
/hpt hpt_ def
/vpt vpt_ def
Level1 {} {
/SDict 10 dict def
systemdict /pdfmark known not {
  userdict /pdfmark systemdict /cleartomark get put
} if
SDict begin [
  /Title (ldomain_adaptive_alberta.eps)
  /Subject (gnuplot plot)
  /Creator (gnuplot 4.4 patchlevel 4)
  /Author (peter)
%  /Producer (gnuplot)
%  /Keywords ()
  /CreationDate (Sat Jul  7 00:12:46 2012)
  /DOCINFO pdfmark
end
} ifelse
/doclip {
  ClipToBoundingBox {
    newpath 50 50 moveto 410 50 lineto 410 302 lineto 50 302 lineto closepath
    clip
  } if
} def
%
% Gnuplot Prolog Version 4.4 (August 2010)
%
%/SuppressPDFMark true def
%
/M {moveto} bind def
/L {lineto} bind def
/R {rmoveto} bind def
/V {rlineto} bind def
/N {newpath moveto} bind def
/Z {closepath} bind def
/C {setrgbcolor} bind def
/f {rlineto fill} bind def
/g {setgray} bind def
/Gshow {show} def   % May be redefined later in the file to support UTF-8
/vpt2 vpt 2 mul def
/hpt2 hpt 2 mul def
/Lshow {currentpoint stroke M 0 vshift R 
	Blacktext {gsave 0 setgray show grestore} {show} ifelse} def
/Rshow {currentpoint stroke M dup stringwidth pop neg vshift R
	Blacktext {gsave 0 setgray show grestore} {show} ifelse} def
/Cshow {currentpoint stroke M dup stringwidth pop -2 div vshift R 
	Blacktext {gsave 0 setgray show grestore} {show} ifelse} def
/UP {dup vpt_ mul /vpt exch def hpt_ mul /hpt exch def
  /hpt2 hpt 2 mul def /vpt2 vpt 2 mul def} def
/DL {Color {setrgbcolor Solid {pop []} if 0 setdash}
 {pop pop pop 0 setgray Solid {pop []} if 0 setdash} ifelse} def
/BL {stroke userlinewidth 2 mul setlinewidth
	Rounded {1 setlinejoin 1 setlinecap} if} def
/AL {stroke userlinewidth 2 div setlinewidth
	Rounded {1 setlinejoin 1 setlinecap} if} def
/UL {dup gnulinewidth mul /userlinewidth exch def
	dup 1 lt {pop 1} if 10 mul /udl exch def} def
/PL {stroke userlinewidth setlinewidth
	Rounded {1 setlinejoin 1 setlinecap} if} def
3.8 setmiterlimit
% Default Line colors
/LCw {1 1 1} def
/LCb {0 0 0} def
/LCa {0 0 0} def
/LC0 {1 0 0} def
/LC1 {0 1 0} def
/LC2 {0 0 1} def
/LC3 {1 0 1} def
/LC4 {0 1 1} def
/LC5 {1 1 0} def
/LC6 {0 0 0} def
/LC7 {1 0.3 0} def
/LC8 {0.5 0.5 0.5} def
% Default Line Types
/LTw {PL [] 1 setgray} def
/LTb {BL [] LCb DL} def
/LTa {AL [1 udl mul 2 udl mul] 0 setdash LCa setrgbcolor} def
/LT0 {PL [] LC0 DL} def
/LT1 {PL [4 dl1 2 dl2] LC1 DL} def
/LT2 {PL [2 dl1 3 dl2] LC2 DL} def
/LT3 {PL [1 dl1 1.5 dl2] LC3 DL} def
/LT4 {PL [6 dl1 2 dl2 1 dl1 2 dl2] LC4 DL} def
/LT5 {PL [3 dl1 3 dl2 1 dl1 3 dl2] LC5 DL} def
/LT6 {PL [2 dl1 2 dl2 2 dl1 6 dl2] LC6 DL} def
/LT7 {PL [1 dl1 2 dl2 6 dl1 2 dl2 1 dl1 2 dl2] LC7 DL} def
/LT8 {PL [2 dl1 2 dl2 2 dl1 2 dl2 2 dl1 2 dl2 2 dl1 4 dl2] LC8 DL} def
/Pnt {stroke [] 0 setdash gsave 1 setlinecap M 0 0 V stroke grestore} def
/Dia {stroke [] 0 setdash 2 copy vpt add M
  hpt neg vpt neg V hpt vpt neg V
  hpt vpt V hpt neg vpt V closepath stroke
  Pnt} def
/Pls {stroke [] 0 setdash vpt sub M 0 vpt2 V
  currentpoint stroke M
  hpt neg vpt neg R hpt2 0 V stroke
 } def
/Box {stroke [] 0 setdash 2 copy exch hpt sub exch vpt add M
  0 vpt2 neg V hpt2 0 V 0 vpt2 V
  hpt2 neg 0 V closepath stroke
  Pnt} def
/Crs {stroke [] 0 setdash exch hpt sub exch vpt add M
  hpt2 vpt2 neg V currentpoint stroke M
  hpt2 neg 0 R hpt2 vpt2 V stroke} def
/TriU {stroke [] 0 setdash 2 copy vpt 1.12 mul add M
  hpt neg vpt -1.62 mul V
  hpt 2 mul 0 V
  hpt neg vpt 1.62 mul V closepath stroke
  Pnt} def
/Star {2 copy Pls Crs} def
/BoxF {stroke [] 0 setdash exch hpt sub exch vpt add M
  0 vpt2 neg V hpt2 0 V 0 vpt2 V
  hpt2 neg 0 V closepath fill} def
/TriUF {stroke [] 0 setdash vpt 1.12 mul add M
  hpt neg vpt -1.62 mul V
  hpt 2 mul 0 V
  hpt neg vpt 1.62 mul V closepath fill} def
/TriD {stroke [] 0 setdash 2 copy vpt 1.12 mul sub M
  hpt neg vpt 1.62 mul V
  hpt 2 mul 0 V
  hpt neg vpt -1.62 mul V closepath stroke
  Pnt} def
/TriDF {stroke [] 0 setdash vpt 1.12 mul sub M
  hpt neg vpt 1.62 mul V
  hpt 2 mul 0 V
  hpt neg vpt -1.62 mul V closepath fill} def
/DiaF {stroke [] 0 setdash vpt add M
  hpt neg vpt neg V hpt vpt neg V
  hpt vpt V hpt neg vpt V closepath fill} def
/Pent {stroke [] 0 setdash 2 copy gsave
  translate 0 hpt M 4 {72 rotate 0 hpt L} repeat
  closepath stroke grestore Pnt} def
/PentF {stroke [] 0 setdash gsave
  translate 0 hpt M 4 {72 rotate 0 hpt L} repeat
  closepath fill grestore} def
/Circle {stroke [] 0 setdash 2 copy
  hpt 0 360 arc stroke Pnt} def
/CircleF {stroke [] 0 setdash hpt 0 360 arc fill} def
/C0 {BL [] 0 setdash 2 copy moveto vpt 90 450 arc} bind def
/C1 {BL [] 0 setdash 2 copy moveto
	2 copy vpt 0 90 arc closepath fill
	vpt 0 360 arc closepath} bind def
/C2 {BL [] 0 setdash 2 copy moveto
	2 copy vpt 90 180 arc closepath fill
	vpt 0 360 arc closepath} bind def
/C3 {BL [] 0 setdash 2 copy moveto
	2 copy vpt 0 180 arc closepath fill
	vpt 0 360 arc closepath} bind def
/C4 {BL [] 0 setdash 2 copy moveto
	2 copy vpt 180 270 arc closepath fill
	vpt 0 360 arc closepath} bind def
/C5 {BL [] 0 setdash 2 copy moveto
	2 copy vpt 0 90 arc
	2 copy moveto
	2 copy vpt 180 270 arc closepath fill
	vpt 0 360 arc} bind def
/C6 {BL [] 0 setdash 2 copy moveto
	2 copy vpt 90 270 arc closepath fill
	vpt 0 360 arc closepath} bind def
/C7 {BL [] 0 setdash 2 copy moveto
	2 copy vpt 0 270 arc closepath fill
	vpt 0 360 arc closepath} bind def
/C8 {BL [] 0 setdash 2 copy moveto
	2 copy vpt 270 360 arc closepath fill
	vpt 0 360 arc closepath} bind def
/C9 {BL [] 0 setdash 2 copy moveto
	2 copy vpt 270 450 arc closepath fill
	vpt 0 360 arc closepath} bind def
/C10 {BL [] 0 setdash 2 copy 2 copy moveto vpt 270 360 arc closepath fill
	2 copy moveto
	2 copy vpt 90 180 arc closepath fill
	vpt 0 360 arc closepath} bind def
/C11 {BL [] 0 setdash 2 copy moveto
	2 copy vpt 0 180 arc closepath fill
	2 copy moveto
	2 copy vpt 270 360 arc closepath fill
	vpt 0 360 arc closepath} bind def
/C12 {BL [] 0 setdash 2 copy moveto
	2 copy vpt 180 360 arc closepath fill
	vpt 0 360 arc closepath} bind def
/C13 {BL [] 0 setdash 2 copy moveto
	2 copy vpt 0 90 arc closepath fill
	2 copy moveto
	2 copy vpt 180 360 arc closepath fill
	vpt 0 360 arc closepath} bind def
/C14 {BL [] 0 setdash 2 copy moveto
	2 copy vpt 90 360 arc closepath fill
	vpt 0 360 arc} bind def
/C15 {BL [] 0 setdash 2 copy vpt 0 360 arc closepath fill
	vpt 0 360 arc closepath} bind def
/Rec {newpath 4 2 roll moveto 1 index 0 rlineto 0 exch rlineto
	neg 0 rlineto closepath} bind def
/Square {dup Rec} bind def
/Bsquare {vpt sub exch vpt sub exch vpt2 Square} bind def
/S0 {BL [] 0 setdash 2 copy moveto 0 vpt rlineto BL Bsquare} bind def
/S1 {BL [] 0 setdash 2 copy vpt Square fill Bsquare} bind def
/S2 {BL [] 0 setdash 2 copy exch vpt sub exch vpt Square fill Bsquare} bind def
/S3 {BL [] 0 setdash 2 copy exch vpt sub exch vpt2 vpt Rec fill Bsquare} bind def
/S4 {BL [] 0 setdash 2 copy exch vpt sub exch vpt sub vpt Square fill Bsquare} bind def
/S5 {BL [] 0 setdash 2 copy 2 copy vpt Square fill
	exch vpt sub exch vpt sub vpt Square fill Bsquare} bind def
/S6 {BL [] 0 setdash 2 copy exch vpt sub exch vpt sub vpt vpt2 Rec fill Bsquare} bind def
/S7 {BL [] 0 setdash 2 copy exch vpt sub exch vpt sub vpt vpt2 Rec fill
	2 copy vpt Square fill Bsquare} bind def
/S8 {BL [] 0 setdash 2 copy vpt sub vpt Square fill Bsquare} bind def
/S9 {BL [] 0 setdash 2 copy vpt sub vpt vpt2 Rec fill Bsquare} bind def
/S10 {BL [] 0 setdash 2 copy vpt sub vpt Square fill 2 copy exch vpt sub exch vpt Square fill
	Bsquare} bind def
/S11 {BL [] 0 setdash 2 copy vpt sub vpt Square fill 2 copy exch vpt sub exch vpt2 vpt Rec fill
	Bsquare} bind def
/S12 {BL [] 0 setdash 2 copy exch vpt sub exch vpt sub vpt2 vpt Rec fill Bsquare} bind def
/S13 {BL [] 0 setdash 2 copy exch vpt sub exch vpt sub vpt2 vpt Rec fill
	2 copy vpt Square fill Bsquare} bind def
/S14 {BL [] 0 setdash 2 copy exch vpt sub exch vpt sub vpt2 vpt Rec fill
	2 copy exch vpt sub exch vpt Square fill Bsquare} bind def
/S15 {BL [] 0 setdash 2 copy Bsquare fill Bsquare} bind def
/D0 {gsave translate 45 rotate 0 0 S0 stroke grestore} bind def
/D1 {gsave translate 45 rotate 0 0 S1 stroke grestore} bind def
/D2 {gsave translate 45 rotate 0 0 S2 stroke grestore} bind def
/D3 {gsave translate 45 rotate 0 0 S3 stroke grestore} bind def
/D4 {gsave translate 45 rotate 0 0 S4 stroke grestore} bind def
/D5 {gsave translate 45 rotate 0 0 S5 stroke grestore} bind def
/D6 {gsave translate 45 rotate 0 0 S6 stroke grestore} bind def
/D7 {gsave translate 45 rotate 0 0 S7 stroke grestore} bind def
/D8 {gsave translate 45 rotate 0 0 S8 stroke grestore} bind def
/D9 {gsave translate 45 rotate 0 0 S9 stroke grestore} bind def
/D10 {gsave translate 45 rotate 0 0 S10 stroke grestore} bind def
/D11 {gsave translate 45 rotate 0 0 S11 stroke grestore} bind def
/D12 {gsave translate 45 rotate 0 0 S12 stroke grestore} bind def
/D13 {gsave translate 45 rotate 0 0 S13 stroke grestore} bind def
/D14 {gsave translate 45 rotate 0 0 S14 stroke grestore} bind def
/D15 {gsave translate 45 rotate 0 0 S15 stroke grestore} bind def
/DiaE {stroke [] 0 setdash vpt add M
  hpt neg vpt neg V hpt vpt neg V
  hpt vpt V hpt neg vpt V closepath stroke} def
/BoxE {stroke [] 0 setdash exch hpt sub exch vpt add M
  0 vpt2 neg V hpt2 0 V 0 vpt2 V
  hpt2 neg 0 V closepath stroke} def
/TriUE {stroke [] 0 setdash vpt 1.12 mul add M
  hpt neg vpt -1.62 mul V
  hpt 2 mul 0 V
  hpt neg vpt 1.62 mul V closepath stroke} def
/TriDE {stroke [] 0 setdash vpt 1.12 mul sub M
  hpt neg vpt 1.62 mul V
  hpt 2 mul 0 V
  hpt neg vpt -1.62 mul V closepath stroke} def
/PentE {stroke [] 0 setdash gsave
  translate 0 hpt M 4 {72 rotate 0 hpt L} repeat
  closepath stroke grestore} def
/CircE {stroke [] 0 setdash 
  hpt 0 360 arc stroke} def
/Opaque {gsave closepath 1 setgray fill grestore 0 setgray closepath} def
/DiaW {stroke [] 0 setdash vpt add M
  hpt neg vpt neg V hpt vpt neg V
  hpt vpt V hpt neg vpt V Opaque stroke} def
/BoxW {stroke [] 0 setdash exch hpt sub exch vpt add M
  0 vpt2 neg V hpt2 0 V 0 vpt2 V
  hpt2 neg 0 V Opaque stroke} def
/TriUW {stroke [] 0 setdash vpt 1.12 mul add M
  hpt neg vpt -1.62 mul V
  hpt 2 mul 0 V
  hpt neg vpt 1.62 mul V Opaque stroke} def
/TriDW {stroke [] 0 setdash vpt 1.12 mul sub M
  hpt neg vpt 1.62 mul V
  hpt 2 mul 0 V
  hpt neg vpt -1.62 mul V Opaque stroke} def
/PentW {stroke [] 0 setdash gsave
  translate 0 hpt M 4 {72 rotate 0 hpt L} repeat
  Opaque stroke grestore} def
/CircW {stroke [] 0 setdash 
  hpt 0 360 arc Opaque stroke} def
/BoxFill {gsave Rec 1 setgray fill grestore} def
/Density {
  /Fillden exch def
  currentrgbcolor
  /ColB exch def /ColG exch def /ColR exch def
  /ColR ColR Fillden mul Fillden sub 1 add def
  /ColG ColG Fillden mul Fillden sub 1 add def
  /ColB ColB Fillden mul Fillden sub 1 add def
  ColR ColG ColB setrgbcolor} def
/BoxColFill {gsave Rec PolyFill} def
/PolyFill {gsave Density fill grestore grestore} def
/h {rlineto rlineto rlineto gsave closepath fill grestore} bind def
%
% PostScript Level 1 Pattern Fill routine for rectangles
% Usage: x y w h s a XX PatternFill
%	x,y = lower left corner of box to be filled
%	w,h = width and height of box
%	  a = angle in degrees between lines and x-axis
%	 XX = 0/1 for no/yes cross-hatch
%
/PatternFill {gsave /PFa [ 9 2 roll ] def
  PFa 0 get PFa 2 get 2 div add PFa 1 get PFa 3 get 2 div add translate
  PFa 2 get -2 div PFa 3 get -2 div PFa 2 get PFa 3 get Rec
  gsave 1 setgray fill grestore clip
  currentlinewidth 0.5 mul setlinewidth
  /PFs PFa 2 get dup mul PFa 3 get dup mul add sqrt def
  0 0 M PFa 5 get rotate PFs -2 div dup translate
  0 1 PFs PFa 4 get div 1 add floor cvi
	{PFa 4 get mul 0 M 0 PFs V} for
  0 PFa 6 get ne {
	0 1 PFs PFa 4 get div 1 add floor cvi
	{PFa 4 get mul 0 2 1 roll M PFs 0 V} for
 } if
  stroke grestore} def
%
/languagelevel where
 {pop languagelevel} {1} ifelse
 2 lt
	{/InterpretLevel1 true def}
	{/InterpretLevel1 Level1 def}
 ifelse
%
% PostScript level 2 pattern fill definitions
%
/Level2PatternFill {
/Tile8x8 {/PaintType 2 /PatternType 1 /TilingType 1 /BBox [0 0 8 8] /XStep 8 /YStep 8}
	bind def
/KeepColor {currentrgbcolor [/Pattern /DeviceRGB] setcolorspace} bind def
<< Tile8x8
 /PaintProc {0.5 setlinewidth pop 0 0 M 8 8 L 0 8 M 8 0 L stroke} 
>> matrix makepattern
/Pat1 exch def
<< Tile8x8
 /PaintProc {0.5 setlinewidth pop 0 0 M 8 8 L 0 8 M 8 0 L stroke
	0 4 M 4 8 L 8 4 L 4 0 L 0 4 L stroke}
>> matrix makepattern
/Pat2 exch def
<< Tile8x8
 /PaintProc {0.5 setlinewidth pop 0 0 M 0 8 L
	8 8 L 8 0 L 0 0 L fill}
>> matrix makepattern
/Pat3 exch def
<< Tile8x8
 /PaintProc {0.5 setlinewidth pop -4 8 M 8 -4 L
	0 12 M 12 0 L stroke}
>> matrix makepattern
/Pat4 exch def
<< Tile8x8
 /PaintProc {0.5 setlinewidth pop -4 0 M 8 12 L
	0 -4 M 12 8 L stroke}
>> matrix makepattern
/Pat5 exch def
<< Tile8x8
 /PaintProc {0.5 setlinewidth pop -2 8 M 4 -4 L
	0 12 M 8 -4 L 4 12 M 10 0 L stroke}
>> matrix makepattern
/Pat6 exch def
<< Tile8x8
 /PaintProc {0.5 setlinewidth pop -2 0 M 4 12 L
	0 -4 M 8 12 L 4 -4 M 10 8 L stroke}
>> matrix makepattern
/Pat7 exch def
<< Tile8x8
 /PaintProc {0.5 setlinewidth pop 8 -2 M -4 4 L
	12 0 M -4 8 L 12 4 M 0 10 L stroke}
>> matrix makepattern
/Pat8 exch def
<< Tile8x8
 /PaintProc {0.5 setlinewidth pop 0 -2 M 12 4 L
	-4 0 M 12 8 L -4 4 M 8 10 L stroke}
>> matrix makepattern
/Pat9 exch def
/Pattern1 {PatternBgnd KeepColor Pat1 setpattern} bind def
/Pattern2 {PatternBgnd KeepColor Pat2 setpattern} bind def
/Pattern3 {PatternBgnd KeepColor Pat3 setpattern} bind def
/Pattern4 {PatternBgnd KeepColor Landscape {Pat5} {Pat4} ifelse setpattern} bind def
/Pattern5 {PatternBgnd KeepColor Landscape {Pat4} {Pat5} ifelse setpattern} bind def
/Pattern6 {PatternBgnd KeepColor Landscape {Pat9} {Pat6} ifelse setpattern} bind def
/Pattern7 {PatternBgnd KeepColor Landscape {Pat8} {Pat7} ifelse setpattern} bind def
} def
%
%
%End of PostScript Level 2 code
%
/PatternBgnd {
  TransparentPatterns {} {gsave 1 setgray fill grestore} ifelse
} def
%
% Substitute for Level 2 pattern fill codes with
% grayscale if Level 2 support is not selected.
%
/Level1PatternFill {
/Pattern1 {0.250 Density} bind def
/Pattern2 {0.500 Density} bind def
/Pattern3 {0.750 Density} bind def
/Pattern4 {0.125 Density} bind def
/Pattern5 {0.375 Density} bind def
/Pattern6 {0.625 Density} bind def
/Pattern7 {0.875 Density} bind def
} def
%
% Now test for support of Level 2 code
%
Level1 {Level1PatternFill} {Level2PatternFill} ifelse
%
/Symbol-Oblique /Symbol findfont [1 0 .167 1 0 0] makefont
dup length dict begin {1 index /FID eq {pop pop} {def} ifelse} forall
currentdict end definefont pop
/MFshow {
   { dup 5 get 3 ge
     { 5 get 3 eq {gsave} {grestore} ifelse }
     {dup dup 0 get findfont exch 1 get scalefont setfont
     [ currentpoint ] exch dup 2 get 0 exch R dup 5 get 2 ne {dup dup 6
     get exch 4 get {Gshow} {stringwidth pop 0 R} ifelse }if dup 5 get 0 eq
     {dup 3 get {2 get neg 0 exch R pop} {pop aload pop M} ifelse} {dup 5
     get 1 eq {dup 2 get exch dup 3 get exch 6 get stringwidth pop -2 div
     dup 0 R} {dup 6 get stringwidth pop -2 div 0 R 6 get
     show 2 index {aload pop M neg 3 -1 roll neg R pop pop} {pop pop pop
     pop aload pop M} ifelse }ifelse }ifelse }
     ifelse }
   forall} def
/Gswidth {dup type /stringtype eq {stringwidth} {pop (n) stringwidth} ifelse} def
/MFwidth {0 exch { dup 5 get 3 ge { 5 get 3 eq { 0 } { pop } ifelse }
 {dup 3 get{dup dup 0 get findfont exch 1 get scalefont setfont
     6 get Gswidth pop add} {pop} ifelse} ifelse} forall} def
/MLshow { currentpoint stroke M
  0 exch R
  Blacktext {gsave 0 setgray MFshow grestore} {MFshow} ifelse } bind def
/MRshow { currentpoint stroke M
  exch dup MFwidth neg 3 -1 roll R
  Blacktext {gsave 0 setgray MFshow grestore} {MFshow} ifelse } bind def
/MCshow { currentpoint stroke M
  exch dup MFwidth -2 div 3 -1 roll R
  Blacktext {gsave 0 setgray MFshow grestore} {MFshow} ifelse } bind def
/XYsave    { [( ) 1 2 true false 3 ()] } bind def
/XYrestore { [( ) 1 2 true false 4 ()] } bind def
end
%%EndProlog
gnudict begin
gsave
doclip
50 50 translate
0.050 0.050 scale
0 setgray
newpath
(Helvetica) findfont 140 scalefont setfont
1.000 UL
LTb
938 633 M
31 0 V
5978 0 R
-31 0 V
938 796 M
31 0 V
5978 0 R
-31 0 V
938 874 M
63 0 V
5946 0 R
-63 0 V
stroke
854 874 M
[ [(Helvetica) 140.0 0.0 true true 0 ( 1e-05)]
] -46.7 MRshow
1.000 UL
LTb
938 1114 M
31 0 V
5978 0 R
-31 0 V
938 1432 M
31 0 V
5978 0 R
-31 0 V
938 1596 M
31 0 V
5978 0 R
-31 0 V
938 1673 M
63 0 V
5946 0 R
-63 0 V
stroke
854 1673 M
[ [(Helvetica) 140.0 0.0 true true 0 ( 0.0001)]
] -46.7 MRshow
1.000 UL
LTb
938 1914 M
31 0 V
5978 0 R
-31 0 V
938 2232 M
31 0 V
5978 0 R
-31 0 V
938 2395 M
31 0 V
5978 0 R
-31 0 V
938 2473 M
63 0 V
5946 0 R
-63 0 V
stroke
854 2473 M
[ [(Helvetica) 140.0 0.0 true true 0 ( 0.001)]
] -46.7 MRshow
1.000 UL
LTb
938 2713 M
31 0 V
5978 0 R
-31 0 V
938 3031 M
31 0 V
5978 0 R
-31 0 V
938 3195 M
31 0 V
5978 0 R
-31 0 V
938 3272 M
63 0 V
5946 0 R
-63 0 V
stroke
854 3272 M
[ [(Helvetica) 140.0 0.0 true true 0 ( 0.01)]
] -46.7 MRshow
1.000 UL
LTb
938 3513 M
31 0 V
5978 0 R
-31 0 V
938 3831 M
31 0 V
5978 0 R
-31 0 V
938 3994 M
31 0 V
5978 0 R
-31 0 V
938 4072 M
63 0 V
5946 0 R
-63 0 V
stroke
854 4072 M
[ [(Helvetica) 140.0 0.0 true true 0 ( 0.1)]
] -46.7 MRshow
1.000 UL
LTb
938 4312 M
31 0 V
5978 0 R
-31 0 V
938 4630 M
31 0 V
5978 0 R
-31 0 V
938 4794 M
31 0 V
5978 0 R
-31 0 V
938 4871 M
63 0 V
5946 0 R
-63 0 V
stroke
854 4871 M
[ [(Helvetica) 140.0 0.0 true true 0 ( 1)]
] -46.7 MRshow
1.000 UL
LTb
938 448 M
0 31 V
0 4392 R
0 -31 V
1482 448 M
0 31 V
0 4392 R
0 -31 V
1761 448 M
0 31 V
0 4392 R
0 -31 V
1893 448 M
0 63 V
0 4360 R
0 -63 V
stroke
1893 308 M
[ [(Helvetica) 140.0 0.0 true true 0 ( 100)]
] -46.7 MCshow
1.000 UL
LTb
2304 448 M
0 31 V
0 4392 R
0 -31 V
2848 448 M
0 31 V
0 4392 R
0 -31 V
3127 448 M
0 31 V
0 4392 R
0 -31 V
3259 448 M
0 63 V
0 4360 R
0 -63 V
stroke
3259 308 M
[ [(Helvetica) 140.0 0.0 true true 0 ( 1000)]
] -46.7 MCshow
1.000 UL
LTb
3671 448 M
0 31 V
0 4392 R
0 -31 V
4214 448 M
0 31 V
0 4392 R
0 -31 V
4493 448 M
0 31 V
0 4392 R
0 -31 V
4626 448 M
0 63 V
0 4360 R
0 -63 V
stroke
4626 308 M
[ [(Helvetica) 140.0 0.0 true true 0 ( 10000)]
] -46.7 MCshow
1.000 UL
LTb
5037 448 M
0 31 V
0 4392 R
0 -31 V
5581 448 M
0 31 V
0 4392 R
0 -31 V
5860 448 M
0 31 V
0 4392 R
0 -31 V
5992 448 M
0 63 V
0 4360 R
0 -63 V
stroke
5992 308 M
[ [(Helvetica) 140.0 0.0 true true 0 ( 100000)]
] -46.7 MCshow
1.000 UL
LTb
6403 448 M
0 31 V
0 4392 R
0 -31 V
6947 448 M
0 31 V
0 4392 R
0 -31 V
stroke
938 4871 N
938 448 L
6009 0 V
0 4423 V
-6009 0 V
Z stroke
LCb setrgbcolor
112 2659 M
currentpoint gsave translate -270 rotate 0 0 moveto
[ [(Helvetica) 140.0 0.0 true true 0 (H1-seminorm of error)]
] -46.7 MCshow
grestore
LTb
LCb setrgbcolor
3942 98 M
[ [(Helvetica) 140.0 0.0 true true 0 (N)]
] -46.7 MCshow
LTb
1.000 UP
1.000 UL
LTb
% Begin plot #1
1.000 UP
3.000 UL
LT0
LCb setrgbcolor
6296 4738 M
[ [(Helvetica) 140.0 0.0 true true 0 (uniform)]
] -46.7 MRshow
LT0
6380 4738 M
399 0 V
1637 4298 M
329 -77 V
408 -77 V
366 -77 V
411 -78 V
388 -79 V
411 -79 V
399 -79 V
411 -79 V
405 -80 V
412 -79 V
408 -80 V
1637 4298 Pls
1966 4221 Pls
2374 4144 Pls
2740 4067 Pls
3151 3989 Pls
3539 3910 Pls
3950 3831 Pls
4349 3752 Pls
4760 3673 Pls
5165 3593 Pls
5577 3514 Pls
5985 3434 Pls
6579 4738 Pls
% End plot #1
% Begin plot #2
1.000 UP
3.000 UL
LT1
LCb setrgbcolor
6296 4598 M
[ [(Helvetica) 140.0 0.0 true true 0 (P1)]
] -46.7 MRshow
LT1
6380 4598 M
399 0 V
1637 4298 M
53 -58 V
85 -62 V
153 -63 V
185 -64 V
179 -65 V
201 -65 V
217 -67 V
221 -69 V
222 -69 V
220 -70 V
217 -68 V
227 -68 V
220 -68 V
219 -69 V
218 -67 V
225 -69 V
221 -67 V
222 -69 V
222 -67 V
1637 4298 Crs
1690 4240 Crs
1775 4178 Crs
1928 4115 Crs
2113 4051 Crs
2292 3986 Crs
2493 3921 Crs
2710 3854 Crs
2931 3785 Crs
3153 3716 Crs
3373 3646 Crs
3590 3578 Crs
3817 3510 Crs
4037 3442 Crs
4256 3373 Crs
4474 3306 Crs
4699 3237 Crs
4920 3170 Crs
5142 3101 Crs
5364 3034 Crs
6579 4598 Crs
% End plot #2
% Begin plot #3
1.000 UP
3.000 UL
LT2
LCb setrgbcolor
6296 4458 M
[ [(Helvetica) 140.0 0.0 true true 0 (P2)]
] -46.7 MRshow
LT2
6380 4458 M
399 0 V
2374 4007 M
31 -77 V
20 -73 V
42 -77 V
18 -67 V
38 -68 V
43 -64 V
118 -70 V
56 -60 V
80 -80 V
133 -76 V
94 -71 V
118 -80 V
142 -84 V
149 -82 V
156 -86 V
127 -77 V
135 -76 V
138 -79 V
149 -84 V
135 -77 V
132 -79 V
143 -81 V
137 -79 V
137 -79 V
2374 4007 Star
2405 3930 Star
2425 3857 Star
2467 3780 Star
2485 3713 Star
2523 3645 Star
2566 3581 Star
2684 3511 Star
2740 3451 Star
2820 3371 Star
2953 3295 Star
3047 3224 Star
3165 3144 Star
3307 3060 Star
3456 2978 Star
3612 2892 Star
3739 2815 Star
3874 2739 Star
4012 2660 Star
4161 2576 Star
4296 2499 Star
4428 2420 Star
4571 2339 Star
4708 2260 Star
4845 2181 Star
6579 4458 Star
% End plot #3
% Begin plot #4
1.000 UP
3.000 UL
LT3
LCb setrgbcolor
6296 4318 M
[ [(Helvetica) 140.0 0.0 true true 0 (P3)]
] -46.7 MRshow
LT3
6380 4318 M
399 0 V
2825 3836 M
22 -60 V
31 -99 V
43 -81 V
18 -78 V
39 -80 V
17 -77 V
35 -78 V
15 -75 V
32 -73 V
15 -68 V
30 -64 V
17 -56 V
55 -68 V
58 -81 V
57 -77 V
66 -79 V
75 -83 V
138 -78 V
59 -65 V
84 -83 V
117 -85 V
68 -64 V
90 -89 V
71 -72 V
80 -71 V
92 -89 V
79 -76 V
84 -72 V
106 -88 V
78 -75 V
87 -78 V
88 -82 V
2825 3836 Box
2847 3776 Box
2878 3677 Box
2921 3596 Box
2939 3518 Box
2978 3438 Box
2995 3361 Box
3030 3283 Box
3045 3208 Box
3077 3135 Box
3092 3067 Box
3122 3003 Box
3139 2947 Box
3194 2879 Box
3252 2798 Box
3309 2721 Box
3375 2642 Box
3450 2559 Box
3588 2481 Box
3647 2416 Box
3731 2333 Box
3848 2248 Box
3916 2184 Box
4006 2095 Box
4077 2023 Box
4157 1952 Box
4249 1863 Box
4328 1787 Box
4412 1715 Box
4518 1627 Box
4596 1552 Box
4683 1474 Box
4771 1392 Box
6579 4318 Box
% End plot #4
% Begin plot #5
1.000 UP
3.000 UL
LT4
LCb setrgbcolor
6296 4178 M
[ [(Helvetica) 140.0 0.0 true true 0 (P4)]
] -46.7 MRshow
LT4
6380 4178 M
399 0 V
3151 3700 M
22 -62 V
32 -103 V
27 -60 V
35 -100 V
24 -60 V
32 -100 V
22 -60 V
29 -100 V
20 -60 V
27 -99 V
30 -75 V
13 -81 V
28 -73 V
13 -78 V
26 -67 V
12 -70 V
25 -57 V
14 -54 V
51 -75 V
40 -71 V
54 -92 V
39 -72 V
43 -75 V
51 -78 V
53 -80 V
64 -78 V
123 -77 V
57 -74 V
51 -82 V
61 -86 V
61 -80 V
97 -78 V
58 -78 V
57 -80 V
56 -77 V
54 -77 V
68 -84 V
59 -77 V
66 -81 V
61 -77 V
69 -84 V
66 -80 V
3151 3700 BoxF
3173 3638 BoxF
3205 3535 BoxF
3232 3475 BoxF
3267 3375 BoxF
3291 3315 BoxF
3323 3215 BoxF
3345 3155 BoxF
3374 3055 BoxF
3394 2995 BoxF
3421 2896 BoxF
3451 2821 BoxF
3464 2740 BoxF
3492 2667 BoxF
3505 2589 BoxF
3531 2522 BoxF
3543 2452 BoxF
3568 2395 BoxF
3582 2341 BoxF
3633 2266 BoxF
3673 2195 BoxF
3727 2103 BoxF
3766 2031 BoxF
3809 1956 BoxF
3860 1878 BoxF
3913 1798 BoxF
3977 1720 BoxF
4100 1643 BoxF
4157 1569 BoxF
4208 1487 BoxF
4269 1401 BoxF
4330 1321 BoxF
4427 1243 BoxF
4485 1165 BoxF
4542 1085 BoxF
4598 1008 BoxF
4652 931 BoxF
4720 847 BoxF
4779 770 BoxF
4845 689 BoxF
4906 612 BoxF
4975 528 BoxF
5041 448 BoxF
6579 4178 BoxF
% End plot #5
1.000 UL
LTb
938 4871 N
938 448 L
6009 0 V
0 4423 V
-6009 0 V
Z stroke
1.000 UP
1.000 UL
LTb
stroke
grestore
end
showpage
%%Trailer
%%DocumentFonts: Helvetica
